^D:\PROG\ООП\C++\LAB1\LAB1\DEBUG\MAIN.OBJ|D:\PROG\ООП\C++\LAB1\LAB1\DEBUG\TRIT.OBJ
D:\PROG\ООП\C++\LAB1\DEBUG\LAB1.ILK
D:\PROG\ООП\C++\LAB1\DEBUG\LAB1.EXE
D:\PROG\ООП\C++\LAB1\DEBUG\LAB1.PDB
^D:\PROG\ООП\C++\LAB1 - БЕЗ ENUM РАБОТАЮЩАЯ\LAB1\DEBUG\MAIN.OBJ|D:\PROG\ООП\C++\LAB1 - БЕЗ ENUM РАБОТАЮЩАЯ\LAB1\DEBUG\TRIT.OBJ
D:\PROG\ООП\C++\LAB1 - без ENUM работающая\DEBUG\LAB1.ILK
D:\PROG\ООП\C++\LAB1 - без ENUM работающая\DEBUG\LAB1.EXE
D:\PROG\ООП\C++\LAB1 - БЕЗ ENUM РАБОТАЮЩАЯ\DEBUG\LAB1.PDB
